Módulo de Gráficos y Visualización de datos
…
```r
base %>%  
  select(NIVEL_ED, CH04, PONDERA) %>%  
* group_by(NIVEL_ED)
```
]]
.column[.content[

```
  # A tibble: 19,912 x 3
  # Groups:   NIVEL_ED [7]
     NIVEL_ED        CH04  PONDERA
     <fct>           <fct>   <int>
   1 Sup. incompleto Mujer     188
   2 Sup. incompleto Varón     228
   3 Sup. completo   Varón     228
   4 Sup. completo   Varón     237
   5 Sup. completo   Mujer     237
   6 Sup. completo   Varón     237
   7 Sup. completo   Mujer     238
   8 Sup. incompleto Varón     273
   9 Sup. completo   Mujer     273
  10 Sup. completo   Mujer     262
  # ... with 19,902 more rows
```
…
